Final Presentation
…
  |=============================================                         |  64%
  |                                                                            
  |=================================================                     |  70%
  |                                                                            
  |======================================================                |  77%
  |                                                                            
  |==========================================================            |  83%
  |                                                                            
  |==============================================================        |  89%
  |                                                                            
  |===================================================================   |  96%
  |                                                                            
  |======================================================================| 100%

# A tibble: 41 × 3
   variable                                                      n_miss pct_miss
   <chr>                                                          <int>    <num>
 1 geography                                                          0        0
 2 geographic_area_name                                               0        0
 3 estimate_percent_households_receiving_food_stamps_snap_house…      0        0
 4 estimate_percent_households_not_receiving_food_stamps_snap_h…      0        0
 5 estimate_percent_households_with_one_or_more_people_in_the_h…      0        0
 6 estimate_percent_households_no_people_in_the_household_60_ye…      0        0
 7 estimate_percent_households_married_couple_family                  0        0
 8 estimate_percent_households_other_family                           0        0
 9 estimate_percent_households_other_family_male_householder_no…      0        0
10 estimate_percent_households_other_family_female_householder_…      0        0
# ℹ 31 more rows

# A tibble: 41 × 3
   variable                                                      n_miss pct_miss
   <chr>                                                          <int>    <num>
 1 estimate_percent_households_household_income_in_the_past_12_…    461   100   
 2 estimate_percent_work_status_families                            461   100   
 3 estimate_percent_households_receiving_food_stamps_snap_house…     36     7.81
 4 estimate_percent_households_not_receiving_food_stamps_snap_h…     36     7.81
 5 estimate_percent_households_with_one_or_more_people_in_the_h…     36     7.81
 6 estimate_percent_households_no_people_in_the_household_60_ye…     36     7.81
 7 estimate_percent_households_married_couple_family                 36     7.81
 8 estimate_percent_households_other_family                          36     7.81
 9 estimate_percent_households_other_family_male_householder_no…     36     7.81
10 estimate_percent_households_other_family_female_householder_…     36     7.81
# ℹ 31 more rows
…
